// Author:
//    Crazyfefe

005-1,59,52,0	script	Magic Barrier	NPC_HIDDEN,0,0,{

OnTouch:
    if(BaseLevel >= 40)
        warp "005-1", 59, 66;
    else
    npctalk l("You don't have the required level to pass this door.");
}
