// This file is generated automatically. All manually added changes will be removed when running the Converter.
// Map 003-1-3: magic school cave mobs
003-1-3,55,58,29,22	monster	Cave Snake	1035,7,35000,150000
003-1-3,70,40,3,1	monster	Bif	1058,1,35000,150000
